\relax 
\providecommand*\new@tpo@label[2]{}
\abx@aux@sortscheme{nty}
\abx@aux@refcontext{nty/global/}
\@writefile{toc}{\boolfalse {citerequest}\boolfalse {citetracker}\boolfalse {pagetracker}\boolfalse {backtracker}\relax }
\@writefile{lof}{\boolfalse {citerequest}\boolfalse {citetracker}\boolfalse {pagetracker}\boolfalse {backtracker}\relax }
\@writefile{lot}{\boolfalse {citerequest}\boolfalse {citetracker}\boolfalse {pagetracker}\boolfalse {backtracker}\relax }
\select@language{english}
\@writefile{toc}{\defcounter {refsection}{0}\relax }\@writefile{toc}{\select@language{english}}
\@writefile{lof}{\defcounter {refsection}{0}\relax }\@writefile{lof}{\select@language{english}}
\@writefile{lot}{\defcounter {refsection}{0}\relax }\@writefile{lot}{\select@language{english}}
\@writefile{lol}{\defcounter {refsection}{0}\relax }\@writefile{lol}{\select@language{english}}
\abx@aux@cite{Embodied}
\abx@aux@segm{0}{0}{Embodied}
\abx@aux@cite{masterThesis}
\abx@aux@segm{0}{0}{masterThesis}
\abx@aux@cite{CHI}
\abx@aux@segm{0}{0}{CHI}
\abx@aux@cite{Muse}
\abx@aux@segm{0}{0}{Muse}
\abx@aux@cite{Sparked}
\abx@aux@segm{0}{0}{Sparked}
\abx@aux@cite{Spaxels}
\abx@aux@segm{0}{0}{Spaxels}
\abx@aux@cite{Paramour}
\abx@aux@segm{0}{0}{Paramour}
\abx@aux@cite{intel}
\abx@aux@segm{0}{0}{intel}
\abx@aux@cite{ABB}
\abx@aux@segm{0}{0}{ABB}
\abx@aux@cite{Creator}
\abx@aux@segm{0}{0}{Creator}
\abx@aux@cite{Elevenplay-AGT}
\abx@aux@segm{0}{0}{Elevenplay-AGT}
\abx@aux@cite{shadow}
\abx@aux@segm{0}{0}{shadow}
\abx@aux@cite{FantasticJourney}
\abx@aux@segm{0}{0}{FantasticJourney}
\abx@aux@segm{0}{0}{Muse}
\abx@aux@segm{0}{0}{Sparked}
\abx@aux@segm{0}{0}{Spaxels}
\abx@aux@segm{0}{0}{Paramour}
\abx@aux@segm{0}{0}{intel}
\abx@aux@segm{0}{0}{ABB}
\abx@aux@segm{0}{0}{Creator}
\abx@aux@segm{0}{0}{Elevenplay-AGT}
\abx@aux@segm{0}{0}{shadow}
\abx@aux@segm{0}{0}{FantasticJourney}
\abx@aux@cite{Verity-Studios}
\abx@aux@segm{0}{0}{Verity-Studios}
\abx@aux@cite{FMA}
\abx@aux@segm{0}{0}{FMA}
\abx@aux@cite{2047}
\abx@aux@segm{0}{0}{2047}
\abx@aux@segm{0}{0}{Paramour}
\abx@aux@segm{0}{0}{FantasticJourney}
\abx@aux@segm{0}{0}{ABB}
\abx@aux@segm{0}{0}{Sparked}
\abx@aux@cite{Schoellig2010-dance}
\abx@aux@segm{0}{0}{Schoellig2010-dance}
\abx@aux@cite{Schoellig2010-music}
\abx@aux@segm{0}{0}{Schoellig2010-music}
\abx@aux@cite{Augugliaro2013-dance}
\abx@aux@segm{0}{0}{Augugliaro2013-dance}
\abx@aux@cite{Schoellig2011-primitives}
\abx@aux@segm{0}{0}{Schoellig2011-primitives}
\abx@aux@cite{Rhizo}
\abx@aux@segm{0}{0}{Rhizo}
\abx@aux@cite{Elevenplay-group}
\abx@aux@segm{0}{0}{Elevenplay-group}
\abx@aux@segm{0}{0}{Elevenplay-AGT}
\abx@aux@segm{0}{0}{shadow}
\@writefile{toc}{\defcounter {refsection}{0}\relax }\@writefile{toc}{\contentsline {chapter}{\numberline {1}Introduction}{7}}
\@writefile{lof}{\defcounter {refsection}{0}\relax }\@writefile{lof}{\addvspace {10\p@ }}
\@writefile{lot}{\defcounter {refsection}{0}\relax }\@writefile{lot}{\addvspace {10\p@ }}
\@writefile{lol}{\defcounter {refsection}{0}\relax }\@writefile{lol}{\addvspace {10\p@ }}
\@writefile{toc}{\defcounter {refsection}{0}\relax }\@writefile{toc}{\contentsline {section}{\numberline {1.1}Related Works}{7}}
\@writefile{lof}{\defcounter {refsection}{0}\relax }\@writefile{lof}{\contentsline {figure}{\numberline {1.0.1}{\ignorespaces \textit  {ReCallas} Performance at Rijeka. Ana Majdak (top) and \IeC {\r A}sa Unander-Scharin (bottom) dancing with the drones\relax }}{8}}
\providecommand*\caption@xref[2]{\@setref\relax\@undefined{#1}}
\newlabel{pictures}{{1.0.1}{8}}
\@writefile{lof}{\defcounter {refsection}{0}\relax }\@writefile{lof}{\contentsline {figure}{\numberline {1.1.1}{\ignorespaces Examples of live drone performances (starting top left): Muse Drone Tour \cite {Muse}, Verity Studios, SPARKED \cite {Sparked}, Ars Electronica\IeC {\textquoteright }s Spaxels \cite {Spaxels}, Cirque du Soleil\IeC {\textquoteright }s Paramour on Broadway \cite {Paramour}, Intel-Disney \IeC {\textquoteleft }Starbright\IeC {\textquoteright } Holiday Drone Show \cite {intel}, ABB\IeC {\textquoteright }s 125th Anniversary Celebration \cite {ABB}, Saatchi \& Saatchi\IeC {\textquoteright }s Meet Your Creator \cite {Creator}, Elevenplay\IeC {\textquoteright }s dance with drones on America\IeC {\textquoteright }s Got Talent \cite {Elevenplay-AGT}, Elevenplay\IeC {\textquoteright }s dance with drones Shadow \cite {shadow}, Verity Studios, Fantastic Journey \cite {FantasticJourney}\relax }}{9}}
\newlabel{performances}{{1.1.1}{9}}
\abx@aux@cite{Laviers2014-CA}
\abx@aux@segm{0}{0}{Laviers2014-CA}
\abx@aux@cite{ROS}
\abx@aux@segm{0}{0}{ROS}
\@writefile{toc}{\defcounter {refsection}{0}\relax }\@writefile{toc}{\contentsline {section}{\numberline {1.2}General view of the flying platform}{10}}
\@writefile{lof}{\defcounter {refsection}{0}\relax }\@writefile{lof}{\contentsline {figure}{\numberline {1.2.1}{\ignorespaces Flight platform diagram\relax }}{10}}
\newlabel{Fig:setup}{{1.2.1}{10}}
\abx@aux@cite{pixracer}
\abx@aux@segm{0}{0}{pixracer}
\abx@aux@cite{PX4}
\abx@aux@segm{0}{0}{PX4}
\@writefile{toc}{\defcounter {refsection}{0}\relax }\@writefile{toc}{\contentsline {section}{\numberline {1.3}Overview}{11}}
\@writefile{toc}{\defcounter {refsection}{0}\relax }\@writefile{toc}{\contentsline {chapter}{\numberline {2}The Hardware}{12}}
\@writefile{lof}{\defcounter {refsection}{0}\relax }\@writefile{lof}{\addvspace {10\p@ }}
\@writefile{lot}{\defcounter {refsection}{0}\relax }\@writefile{lot}{\addvspace {10\p@ }}
\@writefile{lol}{\defcounter {refsection}{0}\relax }\@writefile{lol}{\addvspace {10\p@ }}
\@writefile{toc}{\defcounter {refsection}{0}\relax }\@writefile{toc}{\contentsline {section}{\numberline {2.1}The design of the drones}{12}}
\@writefile{toc}{\defcounter {refsection}{0}\relax }\@writefile{toc}{\contentsline {subsection}{\numberline {2.1.1}Constraints}{12}}
\@writefile{toc}{\defcounter {refsection}{0}\relax }\@writefile{toc}{\contentsline {subsection}{\numberline {2.1.2}The parts}{12}}
\@writefile{toc}{\defcounter {refsection}{0}\relax }\@writefile{toc}{\contentsline {subsubsection}{\nonumberline The frame}{13}}
\@writefile{lof}{\defcounter {refsection}{0}\relax }\@writefile{lof}{\contentsline {figure}{\numberline {2.1.1}{\ignorespaces \emph  {Nighthawk-X6\/} from EMAX\relax }}{13}}
\newlabel{Fig:frame}{{2.1.1}{13}}
\@writefile{lof}{\defcounter {refsection}{0}\relax }\@writefile{lof}{\contentsline {figure}{\numberline {2.1.2}{\ignorespaces Three different quadrotor frame configurations\relax }}{13}}
\newlabel{Fig:frame-config}{{2.1.2}{13}}
\@writefile{toc}{\defcounter {refsection}{0}\relax }\@writefile{toc}{\contentsline {subsubsection}{\nonumberline The motors}{14}}
\newlabel{part:motor}{{2.1.2}{14}}
\@writefile{lof}{\defcounter {refsection}{0}\relax }\@writefile{lof}{\contentsline {figure}{\numberline {2.1.3}{\ignorespaces \emph  {DYS SE2205 PRO 2550KV\/} Brushless Motors\relax }}{14}}
\newlabel{Fig:motors}{{2.1.3}{14}}
\@writefile{toc}{\defcounter {refsection}{0}\relax }\@writefile{toc}{\contentsline {paragraph}{\nonumberline Brushless vs DC Motors}{14}}
\@writefile{toc}{\defcounter {refsection}{0}\relax }\@writefile{toc}{\contentsline {paragraph}{\nonumberline Characteristics}{14}}
\@writefile{lof}{\defcounter {refsection}{0}\relax }\@writefile{lof}{\contentsline {figure}{\numberline {2.1.4}{\ignorespaces Brushed DC motor vs brushless DC motor\relax }}{14}}
\newlabel{Fig:motor-type}{{2.1.4}{14}}
\@writefile{lof}{\defcounter {refsection}{0}\relax }\@writefile{lof}{\contentsline {figure}{\numberline {2.1.5}{\ignorespaces \emph  {DYS SE2205 PRO 2550KV\/} specs\relax }}{16}}
\newlabel{Fig:motor-tech}{{2.1.5}{16}}
\abx@aux@segm{0}{0}{PX4}
\@writefile{toc}{\defcounter {refsection}{0}\relax }\@writefile{toc}{\contentsline {subsubsection}{\nonumberline The flight controller}{17}}
\newlabel{build:px4}{{2.1.2}{17}}
\@writefile{lof}{\defcounter {refsection}{0}\relax }\@writefile{lof}{\contentsline {figure}{\numberline {2.1.6}{\ignorespaces Our flight controller: Pixracer\relax }}{17}}
\newlabel{Fig:pixracer}{{2.1.6}{17}}
\@writefile{toc}{\defcounter {refsection}{0}\relax }\@writefile{toc}{\contentsline {subsubsection}{\nonumberline The propellers}{18}}
\newlabel{part:props}{{2.1.2}{18}}
\@writefile{lof}{\defcounter {refsection}{0}\relax }\@writefile{lof}{\contentsline {figure}{\numberline {2.1.7}{\ignorespaces \emph  {DAL TJ6045 3-Blades $6\times 4.5$\/} Bullnose propellers\relax }}{18}}
\newlabel{Fig:props}{{2.1.7}{18}}
\@writefile{toc}{\defcounter {refsection}{0}\relax }\@writefile{toc}{\contentsline {subsubsection}{\nonumberline The ESC}{19}}
\@writefile{lof}{\defcounter {refsection}{0}\relax }\@writefile{lof}{\contentsline {figure}{\numberline {2.1.8}{\ignorespaces \emph  {DYS XS30A\/} ESCs\relax }}{19}}
\newlabel{Fig:esc}{{2.1.8}{19}}
\@writefile{toc}{\defcounter {refsection}{0}\relax }\@writefile{toc}{\contentsline {subsubsection}{\nonumberline The onboard computer}{20}}
\@writefile{lof}{\defcounter {refsection}{0}\relax }\@writefile{lof}{\contentsline {figure}{\numberline {2.1.9}{\ignorespaces Raspberry Pi model B type 3\relax }}{20}}
\newlabel{Fig:rasp}{{2.1.9}{20}}
\@writefile{toc}{\defcounter {refsection}{0}\relax }\@writefile{toc}{\contentsline {subsubsection}{\nonumberline The wifi dongle}{21}}
\@writefile{lof}{\defcounter {refsection}{0}\relax }\@writefile{lof}{\contentsline {figure}{\numberline {2.1.10}{\ignorespaces \emph  {Edimax EW-7612UAN V2\/} Wifi Module\relax }}{21}}
\newlabel{Fig:wifi}{{2.1.10}{21}}
\@writefile{toc}{\defcounter {refsection}{0}\relax }\@writefile{toc}{\contentsline {subsubsection}{\nonumberline The speaker}{22}}
\@writefile{lof}{\defcounter {refsection}{0}\relax }\@writefile{lof}{\contentsline {figure}{\numberline {2.1.11}{\ignorespaces Speaker\relax }}{22}}
\newlabel{Fig:speaker}{{2.1.11}{22}}
\@writefile{lof}{\defcounter {refsection}{0}\relax }\@writefile{lof}{\contentsline {figure}{\numberline {2.1.12}{\ignorespaces Custom speaker model\relax }}{23}}
\newlabel{Fig:speaker-model}{{2.1.12}{23}}
\@writefile{toc}{\defcounter {refsection}{0}\relax }\@writefile{toc}{\contentsline {subsubsection}{\nonumberline The propeller protections}{24}}
\@writefile{lof}{\defcounter {refsection}{0}\relax }\@writefile{lof}{\contentsline {figure}{\numberline {2.1.13}{\ignorespaces 3D-printed propeller  protections fitted with screws  {~}\relax }}{24}}
\newlabel{Fig:protection}{{2.1.13}{24}}
\@writefile{lof}{\defcounter {refsection}{0}\relax }\@writefile{lof}{\contentsline {figure}{\numberline {2.1.14}{\ignorespaces CAD full propeller protection\relax }}{24}}
\newlabel{Fig:propCad}{{2.1.14}{24}}
\@writefile{lof}{\defcounter {refsection}{0}\relax }\@writefile{lof}{\contentsline {figure}{\numberline {2.1.15}{\ignorespaces CAD propeller protection top\relax }}{25}}
\newlabel{Fig:propCadtop}{{2.1.15}{25}}
\@writefile{lof}{\defcounter {refsection}{0}\relax }\@writefile{lof}{\contentsline {figure}{\numberline {2.1.16}{\ignorespaces CAD propeller protection bottom\relax }}{25}}
\newlabel{Fig:propCadbot}{{2.1.16}{25}}
\@writefile{toc}{\defcounter {refsection}{0}\relax }\@writefile{toc}{\contentsline {subsubsection}{\nonumberline The DAC}{26}}
\@writefile{lof}{\defcounter {refsection}{0}\relax }\@writefile{lof}{\contentsline {figure}{\numberline {2.1.17}{\ignorespaces Pimoroni pHAT DAC\relax }}{26}}
\newlabel{Fig:dac}{{2.1.17}{26}}
\@writefile{toc}{\defcounter {refsection}{0}\relax }\@writefile{toc}{\contentsline {subsubsection}{\nonumberline The battery}{27}}
\@writefile{lof}{\defcounter {refsection}{0}\relax }\@writefile{lof}{\contentsline {figure}{\numberline {2.1.18}{\ignorespaces \emph  {Tattu RC Battery} 8000 mAh 3S1P 15 Lipo Pack\relax }}{27}}
\newlabel{Fig:battery}{{2.1.18}{27}}
\@writefile{toc}{\defcounter {refsection}{0}\relax }\@writefile{toc}{\contentsline {subsubsection}{\nonumberline The power distribution board (PDB)}{28}}
\@writefile{lof}{\defcounter {refsection}{0}\relax }\@writefile{lof}{\contentsline {figure}{\numberline {2.1.19}{\ignorespaces Default PDB sold with the frame\relax }}{28}}
\newlabel{Fig:pdb}{{2.1.19}{28}}
\@writefile{toc}{\defcounter {refsection}{0}\relax }\@writefile{toc}{\contentsline {subsubsection}{\nonumberline The power module}{29}}
\@writefile{lof}{\defcounter {refsection}{0}\relax }\@writefile{lof}{\contentsline {figure}{\numberline {2.1.20}{\ignorespaces mRo Hall Sens Power module ACSP7\relax }}{29}}
\newlabel{Fig:power-module}{{2.1.20}{29}}
\@writefile{toc}{\defcounter {refsection}{0}\relax }\@writefile{toc}{\contentsline {subsubsection}{\nonumberline Hot Swap, Load Sharing Controller}{30}}
\@writefile{lof}{\defcounter {refsection}{0}\relax }\@writefile{lof}{\contentsline {figure}{\numberline {2.1.21}{\ignorespaces Y-PWR, Hot Swap, Load Sharing Controller\relax }}{30}}
\newlabel{Fig:ypwrb}{{2.1.21}{30}}
\@writefile{toc}{\defcounter {refsection}{0}\relax }\@writefile{toc}{\contentsline {subsubsection}{\nonumberline Poron XRD}{31}}
\@writefile{lof}{\defcounter {refsection}{0}\relax }\@writefile{lof}{\contentsline {figure}{\numberline {2.1.22}{\ignorespaces Poron XRD\relax }}{31}}
\newlabel{Fig:poron}{{2.1.22}{31}}
\@writefile{toc}{\defcounter {refsection}{0}\relax }\@writefile{toc}{\contentsline {subsubsection}{\nonumberline The extended frame}{32}}
\@writefile{lof}{\defcounter {refsection}{0}\relax }\@writefile{lof}{\contentsline {figure}{\numberline {2.1.23}{\ignorespaces Extended frame: body\relax }}{32}}
\newlabel{Fig:extended1}{{2.1.23}{32}}
\@writefile{lof}{\defcounter {refsection}{0}\relax }\@writefile{lof}{\contentsline {figure}{\numberline {2.1.24}{\ignorespaces Extented frame: feet\relax }}{33}}
\newlabel{Fig:extended2}{{2.1.24}{33}}
\@writefile{lof}{\defcounter {refsection}{0}\relax }\@writefile{lof}{\contentsline {figure}{\numberline {2.1.25}{\ignorespaces CAD Extended Frame\relax }}{34}}
\newlabel{Fig:extendedCad}{{2.1.25}{34}}
\@writefile{lof}{\defcounter {refsection}{0}\relax }\@writefile{lof}{\contentsline {figure}{\numberline {2.1.26}{\ignorespaces Power distribution schematic\relax }}{35}}
\newlabel{Fig:wiring}{{2.1.26}{35}}
\@writefile{toc}{\defcounter {refsection}{0}\relax }\@writefile{toc}{\contentsline {subsection}{\numberline {2.1.3}The Design}{35}}
\@writefile{toc}{\defcounter {refsection}{0}\relax }\@writefile{toc}{\contentsline {subsubsection}{\nonumberline The wiring}{35}}
\@writefile{toc}{\defcounter {refsection}{0}\relax }\@writefile{toc}{\contentsline {subsection}{\numberline {2.1.4}The final design}{36}}
\@writefile{toc}{\defcounter {refsection}{0}\relax }\@writefile{toc}{\contentsline {section}{\numberline {2.2}In Practice and Reflexions}{36}}
\abx@aux@cite{twostep}
\abx@aux@segm{0}{0}{twostep}
\abx@aux@cite{R1}
\abx@aux@segm{0}{0}{R1}
\@writefile{toc}{\defcounter {refsection}{0}\relax }\@writefile{toc}{\contentsline {chapter}{\numberline {3}The Estimation and Control Library (PX4)}{37}}
\@writefile{lof}{\defcounter {refsection}{0}\relax }\@writefile{lof}{\addvspace {10\p@ }}
\@writefile{lot}{\defcounter {refsection}{0}\relax }\@writefile{lot}{\addvspace {10\p@ }}
\@writefile{lol}{\defcounter {refsection}{0}\relax }\@writefile{lol}{\addvspace {10\p@ }}
\newlabel{chapter:estimation}{{3}{37}}
\@writefile{toc}{\defcounter {refsection}{0}\relax }\@writefile{toc}{\contentsline {section}{\numberline {3.1}Pose estimation}{37}}
\@writefile{toc}{\defcounter {refsection}{0}\relax }\@writefile{toc}{\contentsline {paragraph}{\nonumberline Hardware.}{37}}
\abx@aux@cite{qgroundcontrol}
\abx@aux@segm{0}{0}{qgroundcontrol}
\@writefile{toc}{\defcounter {refsection}{0}\relax }\@writefile{toc}{\contentsline {paragraph}{\nonumberline Parametrization.}{38}}
\newlabel{Eq:quaternionToRotMatrix}{{3.1.1}{38}}
\@writefile{toc}{\defcounter {refsection}{0}\relax }\@writefile{toc}{\contentsline {section}{\numberline {3.2}Analysis of the estimators}{39}}
\@writefile{toc}{\defcounter {refsection}{0}\relax }\@writefile{toc}{\contentsline {subsection}{\numberline {3.2.1}Q Attitude estimator and Local Position Estimator}{39}}
\@writefile{toc}{\defcounter {refsection}{0}\relax }\@writefile{toc}{\contentsline {subsubsection}{\nonumberline Q estimator}{39}}
\newlabel{Eq:corr}{{3.2.1}{39}}
\abx@aux@cite{probarobotics}
\abx@aux@segm{0}{0}{probarobotics}
\@writefile{toc}{\defcounter {refsection}{0}\relax }\@writefile{toc}{\contentsline {subsubsection}{\nonumberline Local Position Estimator (LPE)}{41}}
\abx@aux@cite{kfbucy}
\abx@aux@segm{0}{0}{kfbucy}
\newlabel{Eq:KF}{{3.2.2}{42}}
\@writefile{lof}{\defcounter {refsection}{0}\relax }\@writefile{lof}{\contentsline {figure}{\numberline {3.2.1}{\ignorespaces Continuous time Kalman-Bucy filter data flow\relax }}{42}}
\newlabel{FIG:KF}{{3.2.1}{42}}
\newlabel{Eq:dynamics}{{3.2.4}{42}}
\abx@aux@cite{ECL}
\abx@aux@segm{0}{0}{ECL}
\@writefile{toc}{\defcounter {refsection}{0}\relax }\@writefile{toc}{\contentsline {subsection}{\numberline {3.2.2}EKF2 estimator}{44}}
\@writefile{toc}{\defcounter {refsection}{0}\relax }\@writefile{toc}{\contentsline {subsubsection}{\nonumberline The EKF2 module of the PX4}{44}}
\abx@aux@cite{timehorizon}
\abx@aux@segm{0}{0}{timehorizon}
\abx@aux@segm{0}{0}{probarobotics}
\@writefile{lof}{\defcounter {refsection}{0}\relax }\@writefile{lof}{\contentsline {figure}{\numberline {3.2.2}{\ignorespaces EKF2 strategy to take into account different time horizons of the sensors\relax }}{46}}
\newlabel{horizons}{{3.2.2}{46}}
\@writefile{toc}{\defcounter {refsection}{0}\relax }\@writefile{toc}{\contentsline {subsubsection}{\nonumberline The algorithm and its implementation}{46}}
\@writefile{toc}{\defcounter {refsection}{0}\relax }\@writefile{toc}{\contentsline {section}{\numberline {3.3}Experiments and Discussion}{47}}
\newlabel{section:estimation-experiments}{{3.3}{47}}
\@writefile{toc}{\defcounter {refsection}{0}\relax }\@writefile{toc}{\contentsline {subsection}{\numberline {3.3.1}Motivation}{47}}
\@writefile{toc}{\defcounter {refsection}{0}\relax }\@writefile{toc}{\contentsline {subsection}{\numberline {3.3.2}The setup}{48}}
\@writefile{toc}{\defcounter {refsection}{0}\relax }\@writefile{toc}{\contentsline {subsection}{\numberline {3.3.3}The experiments}{48}}
\abx@aux@cite{ROS2}
\abx@aux@segm{0}{0}{ROS2}
\@writefile{toc}{\defcounter {refsection}{0}\relax }\@writefile{toc}{\contentsline {subsection}{\numberline {3.3.4}Discussion}{49}}
\@writefile{toc}{\defcounter {refsection}{0}\relax }\@writefile{toc}{\contentsline {section}{\numberline {3.4}Reflexions}{49}}
\abx@aux@cite{Kumar2007-motion-planning}
\abx@aux@segm{0}{0}{Kumar2007-motion-planning}
\abx@aux@cite{Khatib1980}
\abx@aux@segm{0}{0}{Khatib1980}
\abx@aux@cite{Khatib1986}
\abx@aux@segm{0}{0}{Khatib1986}
\@writefile{toc}{\defcounter {refsection}{0}\relax }\@writefile{toc}{\contentsline {chapter}{\numberline {4}Motion Control}{50}}
\@writefile{lof}{\defcounter {refsection}{0}\relax }\@writefile{lof}{\addvspace {10\p@ }}
\@writefile{lot}{\defcounter {refsection}{0}\relax }\@writefile{lot}{\addvspace {10\p@ }}
\@writefile{lol}{\defcounter {refsection}{0}\relax }\@writefile{lol}{\addvspace {10\p@ }}
\@writefile{toc}{\defcounter {refsection}{0}\relax }\@writefile{toc}{\contentsline {section}{\numberline {4.1}Background}{50}}
\@writefile{toc}{\defcounter {refsection}{0}\relax }\@writefile{toc}{\contentsline {subsection}{\numberline {4.1.1}Implicit methods}{50}}
\@writefile{toc}{\defcounter {refsection}{0}\relax }\@writefile{toc}{\contentsline {paragraph}{\nonumberline Potential field.}{50}}
\abx@aux@cite{Koren1991-potential}
\abx@aux@segm{0}{0}{Koren1991-potential}
\abx@aux@cite{Rimon-Koditschek}
\abx@aux@segm{0}{0}{Rimon-Koditschek}
\newlabel{potential-Khatib}{{4.1.1}{51}}
\@writefile{toc}{\defcounter {refsection}{0}\relax }\@writefile{toc}{\contentsline {subsection}{\numberline {4.1.2}Explicit methods}{51}}
\@writefile{toc}{\defcounter {refsection}{0}\relax }\@writefile{toc}{\contentsline {subsubsection}{\nonumberline Discrete methods}{51}}
\@writefile{toc}{\defcounter {refsection}{0}\relax }\@writefile{toc}{\contentsline {paragraph}{\nonumberline Road map.}{51}}
\@writefile{toc}{\defcounter {refsection}{0}\relax }\@writefile{toc}{\contentsline {paragraph}{\nonumberline Cell decomposition.}{51}}
\abx@aux@cite{Li-Canny}
\abx@aux@segm{0}{0}{Li-Canny}
\abx@aux@cite{Brockett1982}
\abx@aux@segm{0}{0}{Brockett1982}
\abx@aux@cite{Sussmann1983}
\abx@aux@segm{0}{0}{Sussmann1983}
\abx@aux@cite{Bloch1996}
\abx@aux@segm{0}{0}{Bloch1996}
\abx@aux@cite{Ostrowski1995}
\abx@aux@segm{0}{0}{Ostrowski1995}
\abx@aux@cite{Laumond1994}
\abx@aux@segm{0}{0}{Laumond1994}
\abx@aux@cite{Bryson-Ho}
\abx@aux@segm{0}{0}{Bryson-Ho}
\abx@aux@cite{Jacobson1968}
\abx@aux@segm{0}{0}{Jacobson1968}
\abx@aux@cite{Lasdon-Mitter-Warren}
\abx@aux@segm{0}{0}{Lasdon-Mitter-Warren}
\abx@aux@cite{Ma-Levine}
\abx@aux@segm{0}{0}{Ma-Levine}
\abx@aux@cite{Mayne-Polak}
\abx@aux@segm{0}{0}{Mayne-Polak}
\abx@aux@cite{Teo-Goh-Wong}
\abx@aux@segm{0}{0}{Teo-Goh-Wong}
\abx@aux@cite{Pytlak-Vinter}
\abx@aux@segm{0}{0}{Pytlak-Vinter}
\abx@aux@cite{Zefran1996}
\abx@aux@segm{0}{0}{Zefran1996}
\@writefile{toc}{\defcounter {refsection}{0}\relax }\@writefile{toc}{\contentsline {subsubsection}{\nonumberline Continuous methods}{52}}
\@writefile{toc}{\defcounter {refsection}{0}\relax }\@writefile{toc}{\contentsline {paragraph}{\nonumberline Underactuated systems.}{52}}
\@writefile{toc}{\defcounter {refsection}{0}\relax }\@writefile{toc}{\contentsline {paragraph}{\nonumberline Optimal methods.}{52}}
\@writefile{toc}{\defcounter {refsection}{0}\relax }\@writefile{toc}{\contentsline {subsection}{\numberline {4.1.3}Discussion}{52}}
\@writefile{toc}{\defcounter {refsection}{0}\relax }\@writefile{toc}{\contentsline {section}{\numberline {4.2}Trajectory control: Using potentials}{52}}
\@writefile{toc}{\defcounter {refsection}{0}\relax }\@writefile{toc}{\contentsline {subsection}{\numberline {4.2.1}Design of the potentials}{52}}
\@writefile{toc}{\defcounter {refsection}{0}\relax }\@writefile{toc}{\contentsline {subsubsection}{\nonumberline Attractive potential}{52}}
\@writefile{lof}{\defcounter {refsection}{0}\relax }\@writefile{lof}{\contentsline {figure}{\numberline {4.2.1}{\ignorespaces Schematic representation of a drone with a goal and an obstacle\relax }}{53}}
\newlabel{goalobs}{{4.2.1}{53}}
\@writefile{lof}{\defcounter {refsection}{0}\relax }\@writefile{lof}{\contentsline {figure}{\numberline {4.2.2}{\ignorespaces Shape of an attractive potential with its force\relax }}{53}}
\newlabel{attpotential}{{4.2.2}{53}}
\abx@aux@segm{0}{0}{Khatib1980}
\abx@aux@segm{0}{0}{Khatib1986}
\abx@aux@segm{0}{0}{Khatib1980}
\@writefile{lof}{\defcounter {refsection}{0}\relax }\@writefile{lof}{\contentsline {figure}{\numberline {4.2.3}{\ignorespaces Shape of the repulsive potentials with their forces\relax }}{54}}
\newlabel{repulpotential}{{4.2.3}{54}}
\@writefile{toc}{\defcounter {refsection}{0}\relax }\@writefile{toc}{\contentsline {subsubsection}{\nonumberline Repulsive potential}{54}}
\newlabel{potentialV1}{{4.2.3}{54}}
\newlabel{potentialV2}{{4.2.5}{54}}
\newlabel{potentialV3}{{4.2.7}{55}}
\@writefile{toc}{\defcounter {refsection}{0}\relax }\@writefile{toc}{\contentsline {subsubsection}{\nonumberline Mixed potential}{55}}
\newlabel{potentialV3-mixed}{{4.2.9}{55}}
\@writefile{lof}{\defcounter {refsection}{0}\relax }\@writefile{lof}{\contentsline {figure}{\numberline {4.2.4}{\ignorespaces Representation of the dancer. The red dots are the positions tracked by the MoCap. The blue segment is our representation of the dancer body. The vertical dashed lines mark the distance from which the hands create repulsive half planes. Note: in this picture the right foot of the dancer is protected from the drones only as long as her right hand is extended.\relax }}{56}}
\newlabel{dancer-rep}{{4.2.4}{56}}
\@writefile{lof}{\defcounter {refsection}{0}\relax }\@writefile{lof}{\contentsline {figure}{\numberline {4.2.5}{\ignorespaces Shape of a mixed potential with its force\relax }}{56}}
\newlabel{mixpotential}{{4.2.5}{56}}
\@writefile{toc}{\defcounter {refsection}{0}\relax }\@writefile{toc}{\contentsline {subsection}{\numberline {4.2.2}Trajectory convergence}{57}}
\newlabel{speed-step}{{4.2.11}{57}}
\newlabel{pos-step}{{4.2.12}{57}}
\@writefile{toc}{\defcounter {refsection}{0}\relax }\@writefile{toc}{\contentsline {subsubsection}{\nonumberline Case 1: attractive force}{57}}
\@writefile{lof}{\defcounter {refsection}{0}\relax }\@writefile{lof}{\contentsline {figure}{\numberline {4.2.6}{\ignorespaces Convergence cases for only one attractive point at $x=0$. ``CV'' means that the trajectory converges and ``DIV'' means that the trajectory diverges\relax }}{58}}
\newlabel{fig:convergence}{{4.2.6}{58}}
\abx@aux@cite{Lupashin2014-platform}
\abx@aux@segm{0}{0}{Lupashin2014-platform}
\@writefile{toc}{\defcounter {refsection}{0}\relax }\@writefile{toc}{\contentsline {subsubsection}{\nonumberline Case 2: mixed force}{59}}
\@writefile{toc}{\defcounter {refsection}{0}\relax }\@writefile{toc}{\contentsline {subsection}{\numberline {4.2.3}Prediction Step}{59}}
\@writefile{toc}{\defcounter {refsection}{0}\relax }\@writefile{toc}{\contentsline {section}{\numberline {4.3}Securities Considerations}{59}}
\@writefile{toc}{\defcounter {refsection}{0}\relax }\@writefile{toc}{\contentsline {section}{\numberline {4.4}Reflexions}{60}}
\@writefile{toc}{\defcounter {refsection}{0}\relax }\@writefile{toc}{\contentsline {chapter}{\numberline {5}The Script Language}{61}}
\@writefile{lof}{\defcounter {refsection}{0}\relax }\@writefile{lof}{\addvspace {10\p@ }}
\@writefile{lot}{\defcounter {refsection}{0}\relax }\@writefile{lot}{\addvspace {10\p@ }}
\@writefile{lol}{\defcounter {refsection}{0}\relax }\@writefile{lol}{\addvspace {10\p@ }}
\@writefile{toc}{\defcounter {refsection}{0}\relax }\@writefile{toc}{\contentsline {section}{\numberline {5.1}Language description}{61}}
\@writefile{toc}{\defcounter {refsection}{0}\relax }\@writefile{toc}{\contentsline {subsection}{\numberline {5.1.1}Instructions}{61}}
\@writefile{toc}{\defcounter {refsection}{0}\relax }\@writefile{toc}{\contentsline {subsection}{\numberline {5.1.2}Parallelism}{64}}
\@writefile{toc}{\defcounter {refsection}{0}\relax }\@writefile{toc}{\contentsline {subsection}{\numberline {5.1.3}Events}{64}}
\newlabel{section:events}{{5.1.3}{64}}
\@writefile{toc}{\defcounter {refsection}{0}\relax }\@writefile{toc}{\contentsline {paragraph}{\nonumberline Dancer Events.}{64}}
\newlabel{fig:lookedAt}{{\caption@xref {fig:lookedAt}{ on input line 45}}{65}}
\@writefile{lof}{\defcounter {refsection}{0}\relax }\@writefile{lof}{\contentsline {figure}{\numberline {5.1.1}{\ignorespaces Conditions for triggering \texttt  {lookedAt} event\relax }}{65}}
\@writefile{toc}{\defcounter {refsection}{0}\relax }\@writefile{toc}{\contentsline {paragraph}{\nonumberline System Events.}{65}}
\@writefile{toc}{\defcounter {refsection}{0}\relax }\@writefile{toc}{\contentsline {subsection}{\numberline {5.1.4}Procedures}{66}}
\@writefile{toc}{\defcounter {refsection}{0}\relax }\@writefile{toc}{\contentsline {subsection}{\numberline {5.1.5}Control flow}{67}}
\@writefile{toc}{\defcounter {refsection}{0}\relax }\@writefile{toc}{\contentsline {section}{\numberline {5.2}Scene Analysis}{68}}
\@writefile{toc}{\defcounter {refsection}{0}\relax }\@writefile{toc}{\contentsline {subsection}{\numberline {5.2.1}Scene 1}{68}}
\@writefile{toc}{\defcounter {refsection}{0}\relax }\@writefile{toc}{\contentsline {subsection}{\numberline {5.2.2}Scene 2}{70}}
\@writefile{toc}{\defcounter {refsection}{0}\relax }\@writefile{toc}{\contentsline {section}{\numberline {5.3}Implementation Aspects}{76}}
\@writefile{toc}{\defcounter {refsection}{0}\relax }\@writefile{toc}{\contentsline {section}{\numberline {5.4}In Practice and Reflexions}{77}}
\@writefile{toc}{\defcounter {refsection}{0}\relax }\@writefile{toc}{\contentsline {chapter}{\numberline {6}ROS Implementation}{78}}
\@writefile{lof}{\defcounter {refsection}{0}\relax }\@writefile{lof}{\addvspace {10\p@ }}
\@writefile{lot}{\defcounter {refsection}{0}\relax }\@writefile{lot}{\addvspace {10\p@ }}
\@writefile{lol}{\defcounter {refsection}{0}\relax }\@writefile{lol}{\addvspace {10\p@ }}
\@writefile{toc}{\defcounter {refsection}{0}\relax }\@writefile{toc}{\contentsline {section}{\numberline {6.1}Overview}{78}}
\@writefile{lof}{\defcounter {refsection}{0}\relax }\@writefile{lof}{\contentsline {figure}{\numberline {6.1.1}{\ignorespaces Overview of the ROS nodes\relax }}{78}}
\newlabel{Fig:overviewNodes}{{6.1.1}{78}}
\@writefile{toc}{\defcounter {refsection}{0}\relax }\@writefile{toc}{\contentsline {section}{\numberline {6.2}ROS Launches}{79}}
\@writefile{toc}{\defcounter {refsection}{0}\relax }\@writefile{toc}{\contentsline {section}{\numberline {6.3}ROS Nodes}{81}}
\@writefile{toc}{\defcounter {refsection}{0}\relax }\@writefile{toc}{\contentsline {subsection}{\numberline {6.3.1}Choreographer node}{81}}
\@writefile{toc}{\defcounter {refsection}{0}\relax }\@writefile{toc}{\contentsline {subsubsection}{\nonumberline Description}{81}}
\@writefile{toc}{\defcounter {refsection}{0}\relax }\@writefile{toc}{\contentsline {subsubsection}{\nonumberline Topics}{81}}
\@writefile{toc}{\defcounter {refsection}{0}\relax }\@writefile{toc}{\contentsline {subsubsection}{\nonumberline Parameters}{82}}
\@writefile{toc}{\defcounter {refsection}{0}\relax }\@writefile{toc}{\contentsline {subsection}{\numberline {6.3.2}Stage security node}{82}}
\@writefile{toc}{\defcounter {refsection}{0}\relax }\@writefile{toc}{\contentsline {subsubsection}{\nonumberline Description}{82}}
\@writefile{toc}{\defcounter {refsection}{0}\relax }\@writefile{toc}{\contentsline {subsubsection}{\nonumberline Topics}{82}}
\@writefile{toc}{\defcounter {refsection}{0}\relax }\@writefile{toc}{\contentsline {subsubsection}{\nonumberline Parameters}{82}}
\@writefile{toc}{\defcounter {refsection}{0}\relax }\@writefile{toc}{\contentsline {subsection}{\numberline {6.3.3}Trajectory recording node}{83}}
\@writefile{toc}{\defcounter {refsection}{0}\relax }\@writefile{toc}{\contentsline {subsubsection}{\nonumberline Description}{83}}
\@writefile{toc}{\defcounter {refsection}{0}\relax }\@writefile{toc}{\contentsline {subsubsection}{\nonumberline Topics}{83}}
\@writefile{toc}{\defcounter {refsection}{0}\relax }\@writefile{toc}{\contentsline {subsubsection}{\nonumberline Parameters}{84}}
\@writefile{toc}{\defcounter {refsection}{0}\relax }\@writefile{toc}{\contentsline {subsection}{\numberline {6.3.4}MoCap node}{84}}
\@writefile{toc}{\defcounter {refsection}{0}\relax }\@writefile{toc}{\contentsline {subsubsection}{\nonumberline Description}{84}}
\@writefile{toc}{\defcounter {refsection}{0}\relax }\@writefile{toc}{\contentsline {subsubsection}{\nonumberline Topics}{84}}
\@writefile{toc}{\defcounter {refsection}{0}\relax }\@writefile{toc}{\contentsline {subsubsection}{\nonumberline Parameters}{85}}
\@writefile{toc}{\defcounter {refsection}{0}\relax }\@writefile{toc}{\contentsline {subsection}{\numberline {6.3.5}Event trigger node}{85}}
\@writefile{toc}{\defcounter {refsection}{0}\relax }\@writefile{toc}{\contentsline {subsubsection}{\nonumberline Description}{85}}
\@writefile{toc}{\defcounter {refsection}{0}\relax }\@writefile{toc}{\contentsline {subsubsection}{\nonumberline Topics}{85}}
\@writefile{toc}{\defcounter {refsection}{0}\relax }\@writefile{toc}{\contentsline {subsubsection}{\nonumberline Parameters}{85}}
\@writefile{toc}{\defcounter {refsection}{0}\relax }\@writefile{toc}{\contentsline {subsection}{\numberline {6.3.6}Music node}{86}}
\@writefile{toc}{\defcounter {refsection}{0}\relax }\@writefile{toc}{\contentsline {subsubsection}{\nonumberline Description}{86}}
\@writefile{toc}{\defcounter {refsection}{0}\relax }\@writefile{toc}{\contentsline {subsubsection}{\nonumberline Topics}{86}}
\@writefile{toc}{\defcounter {refsection}{0}\relax }\@writefile{toc}{\contentsline {subsubsection}{\nonumberline Parameters}{86}}
\@writefile{toc}{\defcounter {refsection}{0}\relax }\@writefile{toc}{\contentsline {subsection}{\numberline {6.3.7}MoCap simulation node}{86}}
\@writefile{toc}{\defcounter {refsection}{0}\relax }\@writefile{toc}{\contentsline {subsubsection}{\nonumberline Description}{86}}
\@writefile{toc}{\defcounter {refsection}{0}\relax }\@writefile{toc}{\contentsline {subsubsection}{\nonumberline Topics}{87}}
\@writefile{toc}{\defcounter {refsection}{0}\relax }\@writefile{toc}{\contentsline {subsubsection}{\nonumberline Parameters}{87}}
\@writefile{toc}{\defcounter {refsection}{0}\relax }\@writefile{toc}{\contentsline {subsection}{\numberline {6.3.8}Dancer simulation node}{87}}
\@writefile{toc}{\defcounter {refsection}{0}\relax }\@writefile{toc}{\contentsline {subsubsection}{\nonumberline Description}{87}}
\@writefile{toc}{\defcounter {refsection}{0}\relax }\@writefile{toc}{\contentsline {subsubsection}{\nonumberline Topics}{87}}
\@writefile{toc}{\defcounter {refsection}{0}\relax }\@writefile{toc}{\contentsline {subsubsection}{\nonumberline Parameters}{87}}
\@writefile{toc}{\defcounter {refsection}{0}\relax }\@writefile{toc}{\contentsline {subsection}{\numberline {6.3.9}MoCap calibration node}{87}}
\@writefile{toc}{\defcounter {refsection}{0}\relax }\@writefile{toc}{\contentsline {subsubsection}{\nonumberline Description}{87}}
\@writefile{toc}{\defcounter {refsection}{0}\relax }\@writefile{toc}{\contentsline {subsubsection}{\nonumberline Topics}{88}}
\@writefile{toc}{\defcounter {refsection}{0}\relax }\@writefile{toc}{\contentsline {subsubsection}{\nonumberline Parameters}{88}}
\@writefile{toc}{\defcounter {refsection}{0}\relax }\@writefile{toc}{\contentsline {subsection}{\numberline {6.3.10}MoCap duplication node}{88}}
\@writefile{toc}{\defcounter {refsection}{0}\relax }\@writefile{toc}{\contentsline {subsubsection}{\nonumberline Description}{88}}
\@writefile{toc}{\defcounter {refsection}{0}\relax }\@writefile{toc}{\contentsline {subsubsection}{\nonumberline Topics}{88}}
\@writefile{toc}{\defcounter {refsection}{0}\relax }\@writefile{toc}{\contentsline {subsubsection}{\nonumberline Parameters}{88}}
\@writefile{toc}{\defcounter {refsection}{0}\relax }\@writefile{toc}{\contentsline {subsection}{\numberline {6.3.11}Apply motions node}{89}}
\@writefile{toc}{\defcounter {refsection}{0}\relax }\@writefile{toc}{\contentsline {subsubsection}{\nonumberline Description}{89}}
\@writefile{toc}{\defcounter {refsection}{0}\relax }\@writefile{toc}{\contentsline {subsubsection}{\nonumberline Topics}{89}}
\@writefile{toc}{\defcounter {refsection}{0}\relax }\@writefile{toc}{\contentsline {subsubsection}{\nonumberline Parameters}{89}}
\@writefile{toc}{\defcounter {refsection}{0}\relax }\@writefile{toc}{\contentsline {subsection}{\numberline {6.3.12}General controller node}{90}}
\@writefile{toc}{\defcounter {refsection}{0}\relax }\@writefile{toc}{\contentsline {subsubsection}{\nonumberline Description}{90}}
\@writefile{toc}{\defcounter {refsection}{0}\relax }\@writefile{toc}{\contentsline {subsubsection}{\nonumberline Topics}{90}}
\@writefile{toc}{\defcounter {refsection}{0}\relax }\@writefile{toc}{\contentsline {subsubsection}{\nonumberline Parameters}{91}}
\@writefile{toc}{\defcounter {refsection}{0}\relax }\@writefile{toc}{\contentsline {subsection}{\numberline {6.3.13}Flight mode node}{93}}
\@writefile{toc}{\defcounter {refsection}{0}\relax }\@writefile{toc}{\contentsline {subsubsection}{\nonumberline Description}{93}}
\@writefile{toc}{\defcounter {refsection}{0}\relax }\@writefile{toc}{\contentsline {subsubsection}{\nonumberline Topics}{93}}
\@writefile{toc}{\defcounter {refsection}{0}\relax }\@writefile{toc}{\contentsline {subsubsection}{\nonumberline Parameters}{93}}
\@writefile{toc}{\defcounter {refsection}{0}\relax }\@writefile{toc}{\contentsline {subsection}{\numberline {6.3.14}Mavros node}{93}}
\@writefile{toc}{\defcounter {refsection}{0}\relax }\@writefile{toc}{\contentsline {subsubsection}{\nonumberline Description}{93}}
\@writefile{toc}{\defcounter {refsection}{0}\relax }\@writefile{toc}{\contentsline {subsubsection}{\nonumberline Topics}{94}}
\@writefile{toc}{\defcounter {refsection}{0}\relax }\@writefile{toc}{\contentsline {subsubsection}{\nonumberline Parameters}{95}}
\@writefile{toc}{\defcounter {refsection}{0}\relax }\@writefile{toc}{\contentsline {subsection}{\numberline {6.3.15}Play node}{96}}
\@writefile{toc}{\defcounter {refsection}{0}\relax }\@writefile{toc}{\contentsline {subsubsection}{\nonumberline Description}{96}}
\@writefile{toc}{\defcounter {refsection}{0}\relax }\@writefile{toc}{\contentsline {subsubsection}{\nonumberline Topics}{96}}
\@writefile{toc}{\defcounter {refsection}{0}\relax }\@writefile{toc}{\contentsline {subsubsection}{\nonumberline Parameters}{96}}
\@writefile{toc}{\defcounter {refsection}{0}\relax }\@writefile{toc}{\contentsline {subsection}{\numberline {6.3.16}Record node}{96}}
\@writefile{toc}{\defcounter {refsection}{0}\relax }\@writefile{toc}{\contentsline {subsubsection}{\nonumberline Description}{96}}
\@writefile{toc}{\defcounter {refsection}{0}\relax }\@writefile{toc}{\contentsline {subsubsection}{\nonumberline Topics}{97}}
\@writefile{toc}{\defcounter {refsection}{0}\relax }\@writefile{toc}{\contentsline {subsubsection}{\nonumberline Parameters}{97}}
\@writefile{toc}{\defcounter {refsection}{0}\relax }\@writefile{toc}{\contentsline {section}{\numberline {6.4}ROS Topics}{97}}
\@writefile{toc}{\defcounter {refsection}{0}\relax }\@writefile{toc}{\contentsline {section}{\numberline {6.5}ROS Parameters}{104}}
\newlabel{Part:parameters}{{6.5}{104}}
\@writefile{toc}{\defcounter {refsection}{0}\relax }\@writefile{toc}{\contentsline {chapter}{\numberline {7}Miscellaneous}{105}}
\@writefile{lof}{\defcounter {refsection}{0}\relax }\@writefile{lof}{\addvspace {10\p@ }}
\@writefile{lot}{\defcounter {refsection}{0}\relax }\@writefile{lot}{\addvspace {10\p@ }}
\@writefile{lol}{\defcounter {refsection}{0}\relax }\@writefile{lol}{\addvspace {10\p@ }}
\@writefile{toc}{\defcounter {refsection}{0}\relax }\@writefile{toc}{\contentsline {section}{\numberline {7.1}Auxiliary scripts}{105}}
\@writefile{toc}{\defcounter {refsection}{0}\relax }\@writefile{toc}{\contentsline {subsection}{\numberline {7.1.1}Setting up the drones}{105}}
\@writefile{toc}{\defcounter {refsection}{0}\relax }\@writefile{toc}{\contentsline {subsection}{\numberline {7.1.2}Plotting}{106}}
\@writefile{toc}{\defcounter {refsection}{0}\relax }\@writefile{toc}{\contentsline {subsection}{\numberline {7.1.3}ROS utilities}{106}}
\@writefile{toc}{\defcounter {refsection}{0}\relax }\@writefile{toc}{\contentsline {subsection}{\numberline {7.1.4}Manual intervention}{107}}
\@writefile{toc}{\defcounter {refsection}{0}\relax }\@writefile{toc}{\contentsline {section}{\numberline {7.2}Visualisation}{107}}
\@writefile{toc}{\defcounter {refsection}{0}\relax }\@writefile{toc}{\contentsline {subsection}{\numberline {7.2.1}Automatic trajectory plotting}{108}}
\@writefile{toc}{\defcounter {refsection}{0}\relax }\@writefile{toc}{\contentsline {paragraph}{\nonumberline The global view.}{108}}
\@writefile{toc}{\defcounter {refsection}{0}\relax }\@writefile{toc}{\contentsline {paragraph}{\nonumberline The coordinate view.}{108}}
\@writefile{toc}{\defcounter {refsection}{0}\relax }\@writefile{toc}{\contentsline {subsection}{\numberline {7.2.2}Automatic potential visualization}{108}}
\@writefile{toc}{\defcounter {refsection}{0}\relax }\@writefile{toc}{\contentsline {section}{\numberline {7.3}Music}{109}}
\@writefile{toc}{\defcounter {refsection}{0}\relax }\@writefile{toc}{\contentsline {section}{\numberline {7.4}Networks}{109}}
\@writefile{toc}{\defcounter {refsection}{0}\relax }\@writefile{toc}{\contentsline {section}{\numberline {7.5}MoCap}{109}}
\@writefile{toc}{\defcounter {refsection}{0}\relax }\@writefile{toc}{\contentsline {subsection}{\numberline {7.5.1}The location}{109}}
\@writefile{lof}{\defcounter {refsection}{0}\relax }\@writefile{lof}{\contentsline {figure}{\numberline {7.5.1}{\ignorespaces MoCap setup in R1\relax }}{110}}
\newlabel{Fig:mocapR1}{{7.5.1}{110}}
\@writefile{toc}{\defcounter {refsection}{0}\relax }\@writefile{toc}{\contentsline {subsection}{\numberline {7.5.2}Hardware}{110}}
\@writefile{lof}{\defcounter {refsection}{0}\relax }\@writefile{lof}{\contentsline {figure}{\numberline {7.5.2}{\ignorespaces OptiTrack Flex 13 motion capture camera (on the left) and its wiring to USB camera system (on the right)\relax }}{111}}
\newlabel{Fig:optitrack}{{7.5.2}{111}}
\@writefile{toc}{\defcounter {refsection}{0}\relax }\@writefile{toc}{\contentsline {subsection}{\numberline {7.5.3}Software}{111}}
\@writefile{toc}{\defcounter {refsection}{0}\relax }\@writefile{toc}{\contentsline {subsection}{\numberline {7.5.4}Safety measures during developpement}{111}}
\@writefile{lof}{\defcounter {refsection}{0}\relax }\@writefile{lof}{\contentsline {figure}{\numberline {7.5.3}{\ignorespaces Schematic of our MoCap setup\relax }}{112}}
\newlabel{Fig:mocap-setup}{{7.5.3}{112}}
\@writefile{toc}{\defcounter {refsection}{0}\relax }\@writefile{toc}{\contentsline {subsection}{\numberline {7.5.5}Safety measures: Software}{112}}
\@writefile{toc}{\defcounter {refsection}{0}\relax }\@writefile{toc}{\contentsline {subsection}{\numberline {7.5.6}Discussion}{113}}
\@writefile{toc}{\defcounter {refsection}{0}\relax }\@writefile{toc}{\contentsline {chapter}{\numberline {8}Tutorials}{114}}
\@writefile{lof}{\defcounter {refsection}{0}\relax }\@writefile{lof}{\addvspace {10\p@ }}
\@writefile{lot}{\defcounter {refsection}{0}\relax }\@writefile{lot}{\addvspace {10\p@ }}
\@writefile{lol}{\defcounter {refsection}{0}\relax }\@writefile{lol}{\addvspace {10\p@ }}
\@writefile{toc}{\defcounter {refsection}{0}\relax }\@writefile{toc}{\contentsline {section}{\numberline {8.1}MoCap Setup}{114}}
\newlabel{part:tutomocap}{{8.1}{114}}
\@writefile{lof}{\defcounter {refsection}{0}\relax }\@writefile{lof}{\contentsline {figure}{\numberline {8.1.1}{\ignorespaces Optitrack Mocap Wiring\relax }}{115}}
\newlabel{Fig:tutomocap}{{8.1.1}{115}}
\@writefile{toc}{\defcounter {refsection}{0}\relax }\@writefile{toc}{\contentsline {section}{\numberline {8.2}Network Setup}{118}}
\abx@aux@cite{mpd}
\abx@aux@segm{0}{0}{mpd}
\abx@aux@cite{ncmpcpp}
\abx@aux@segm{0}{0}{ncmpcpp}
\abx@aux@segm{0}{0}{ncmpcpp}
\@writefile{toc}{\defcounter {refsection}{0}\relax }\@writefile{toc}{\contentsline {section}{\numberline {8.3}Managing Music and playlists}{120}}
\@writefile{toc}{\defcounter {refsection}{0}\relax }\@writefile{toc}{\contentsline {section}{\numberline {8.4}Start Linux Laptop ROS nodes}{122}}
\@writefile{toc}{\defcounter {refsection}{0}\relax }\@writefile{toc}{\contentsline {section}{\numberline {8.5}Start Drone ROS nodes}{124}}
\@writefile{toc}{\defcounter {refsection}{0}\relax }\@writefile{toc}{\contentsline {section}{\numberline {8.6}Before real flight}{125}}
\@writefile{toc}{\defcounter {refsection}{0}\relax }\@writefile{toc}{\contentsline {section}{\numberline {8.7}Scene1}{126}}
\@writefile{toc}{\defcounter {refsection}{0}\relax }\@writefile{toc}{\contentsline {section}{\numberline {8.8}3D Printing}{128}}
\@writefile{toc}{\defcounter {refsection}{0}\relax }\@writefile{toc}{\contentsline {section}{\numberline {8.9}Github}{129}}
\@writefile{toc}{\defcounter {refsection}{0}\relax }\@writefile{toc}{\contentsline {section}{\numberline {8.10}Batteries}{130}}
\@writefile{toc}{\defcounter {refsection}{0}\relax }\@writefile{toc}{\contentsline {section}{\numberline {8.11}I3wm basics}{131}}
\@writefile{toc}{\defcounter {refsection}{0}\relax }\@writefile{toc}{\contentsline {section}{\numberline {8.12}How to build the drones?}{132}}
\@writefile{toc}{\defcounter {refsection}{0}\relax }\@writefile{toc}{\contentsline {section}{\numberline {8.13}Annoying Beep?}{133}}
\@writefile{toc}{\defcounter {refsection}{0}\relax }\@writefile{toc}{\contentsline {chapter}{\numberline {9}Conclusions}{134}}
\@writefile{lof}{\defcounter {refsection}{0}\relax }\@writefile{lof}{\addvspace {10\p@ }}
\@writefile{lot}{\defcounter {refsection}{0}\relax }\@writefile{lot}{\addvspace {10\p@ }}
\@writefile{lol}{\defcounter {refsection}{0}\relax }\@writefile{lol}{\addvspace {10\p@ }}
\@writefile{toc}{\defcounter {refsection}{0}\relax }\@writefile{toc}{\contentsline {chapter}{\nonumberline Bibliography}{135}}
\@writefile{lof}{\defcounter {refsection}{0}\relax }\@writefile{lof}{\addvspace {10\p@ }}
\@writefile{lot}{\defcounter {refsection}{0}\relax }\@writefile{lot}{\addvspace {10\p@ }}
\@writefile{lol}{\defcounter {refsection}{0}\relax }\@writefile{lol}{\addvspace {10\p@ }}
\abx@aux@refcontextdefaultsdone
\abx@aux@defaultrefcontext{0}{twostep}{nty/global/}
\abx@aux@defaultrefcontext{0}{Spaxels}{nty/global/}
\abx@aux@defaultrefcontext{0}{Augugliaro2013-dance}{nty/global/}
\abx@aux@defaultrefcontext{0}{Bloch1996}{nty/global/}
\abx@aux@defaultrefcontext{0}{Brockett1982}{nty/global/}
\abx@aux@defaultrefcontext{0}{Bryson-Ho}{nty/global/}
\abx@aux@defaultrefcontext{0}{kfbucy}{nty/global/}
\abx@aux@defaultrefcontext{0}{Paramour}{nty/global/}
\abx@aux@defaultrefcontext{0}{Elevenplay-group}{nty/global/}
\abx@aux@defaultrefcontext{0}{Elevenplay-AGT}{nty/global/}
\abx@aux@defaultrefcontext{0}{shadow}{nty/global/}
\abx@aux@defaultrefcontext{0}{CHI}{nty/global/}
\abx@aux@defaultrefcontext{0}{FMA}{nty/global/}
\abx@aux@defaultrefcontext{0}{intel}{nty/global/}
\abx@aux@defaultrefcontext{0}{Jacobson1968}{nty/global/}
\abx@aux@defaultrefcontext{0}{Khatib1980}{nty/global/}
\abx@aux@defaultrefcontext{0}{Khatib1986}{nty/global/}
\abx@aux@defaultrefcontext{0}{timehorizon}{nty/global/}
\abx@aux@defaultrefcontext{0}{Koren1991-potential}{nty/global/}
\abx@aux@defaultrefcontext{0}{R1}{nty/global/}
\abx@aux@defaultrefcontext{0}{Kumar2007-motion-planning}{nty/global/}
\abx@aux@defaultrefcontext{0}{Lasdon-Mitter-Warren}{nty/global/}
\abx@aux@defaultrefcontext{0}{Laumond1994}{nty/global/}
\abx@aux@defaultrefcontext{0}{Laviers2014-CA}{nty/global/}
\abx@aux@defaultrefcontext{0}{Li-Canny}{nty/global/}
\abx@aux@defaultrefcontext{0}{Lupashin2014-platform}{nty/global/}
\abx@aux@defaultrefcontext{0}{Ma-Levine}{nty/global/}
\abx@aux@defaultrefcontext{0}{Mayne-Polak}{nty/global/}
\abx@aux@defaultrefcontext{0}{ECL}{nty/global/}
\abx@aux@defaultrefcontext{0}{pixracer}{nty/global/}
\abx@aux@defaultrefcontext{0}{mpd}{nty/global/}
\abx@aux@defaultrefcontext{0}{ncmpcpp}{nty/global/}
\abx@aux@defaultrefcontext{0}{Muse}{nty/global/}
\abx@aux@defaultrefcontext{0}{ROS2}{nty/global/}
\abx@aux@defaultrefcontext{0}{ROS}{nty/global/}
\abx@aux@defaultrefcontext{0}{Ostrowski1995}{nty/global/}
\abx@aux@defaultrefcontext{0}{PX4}{nty/global/}
\abx@aux@defaultrefcontext{0}{qgroundcontrol}{nty/global/}
\abx@aux@defaultrefcontext{0}{Pytlak-Vinter}{nty/global/}
\abx@aux@defaultrefcontext{0}{Rhizo}{nty/global/}
\abx@aux@defaultrefcontext{0}{Rimon-Koditschek}{nty/global/}
\abx@aux@defaultrefcontext{0}{Creator}{nty/global/}
\abx@aux@defaultrefcontext{0}{Schoellig2010-dance}{nty/global/}
\abx@aux@defaultrefcontext{0}{Schoellig2011-primitives}{nty/global/}
\abx@aux@defaultrefcontext{0}{Schoellig2010-music}{nty/global/}
\abx@aux@defaultrefcontext{0}{Sussmann1983}{nty/global/}
\abx@aux@defaultrefcontext{0}{Teo-Goh-Wong}{nty/global/}
\abx@aux@defaultrefcontext{0}{probarobotics}{nty/global/}
\abx@aux@defaultrefcontext{0}{masterThesis}{nty/global/}
\abx@aux@defaultrefcontext{0}{Embodied}{nty/global/}
\abx@aux@defaultrefcontext{0}{Verity-Studios}{nty/global/}
\abx@aux@defaultrefcontext{0}{2047}{nty/global/}
\abx@aux@defaultrefcontext{0}{ABB}{nty/global/}
\abx@aux@defaultrefcontext{0}{FantasticJourney}{nty/global/}
\abx@aux@defaultrefcontext{0}{Sparked}{nty/global/}
\abx@aux@defaultrefcontext{0}{Zefran1996}{nty/global/}
\global\@namedef{scr@dte@chapter@lastmaxnumwidth}{10.85587pt}
\global\@namedef{scr@dte@section@lastmaxnumwidth}{22.55692pt}
\global\@namedef{scr@dte@subsection@lastmaxnumwidth}{30.57231pt}
